{
  "swagger": "2.0",
  "info": {
    "title": "interfaces/grpc/proto/v1/fias/address.proto",
    "version": "version not set"
  },
  "tags": [
    {
      "name": "AddressHandler"
    }
  ],
  "consumes": [
    "application/json"
  ],
  "produces": [
    "application/json"
  ],
  "paths": {
    "/api/v1/address/{guid}": {
      "get": {
        "operationId": "AddressHandler_GetByGuid",
        "responses": {
          "200": {
            "description": "A successful response.",
            "schema": {
              "$ref": "#/definitions/address_v1AddressMessage"
            }
          },
          "default": {
            "description": "An unexpected error response.",
            "schema": {
              "$ref": "#/definitions/rpcStatus"
            }
          }
        },
        "parameters": [
          {
            "name": "guid",
            "in": "path",
            "required": true,
            "type": "string"
          }
        ],
        "tags": [
          "AddressHandler"
        ]
      }
    },
    "/api/v1/cities": {
      "get": {
        "operationId": "AddressHandler_GetAllCities",
        "responses": {
          "200": {
            "description": "A successful response.",
            "schema": {
              "$ref": "#/definitions/address_v1Addresses"
            }
          },
          "default": {
            "description": "An unexpected error response.",
            "schema": {
              "$ref": "#/definitions/rpcStatus"
            }
          }
        },
        "tags": [
          "AddressHandler"
        ]
      }
    },
    "/api/v1/citybyterm/{term}": {
      "get": {
        "operationId": "AddressHandler_GetCitiesByTerm",
        "responses": {
          "200": {
            "description": "A successful response.",
            "schema": {
              "$ref": "#/definitions/address_v1Addresses"
            }
          },
          "default": {
            "description": "An unexpected error response.",
            "schema": {
              "$ref": "#/definitions/rpcStatus"
            }
          }
        },
        "parameters": [
          {
            "name": "term",
            "in": "path",
            "required": true,
            "type": "string"
          },
          {
            "name": "count",
            "in": "query",
            "required": false,
            "type": "string",
            "format": "int64"
          }
        ],
        "tags": [
          "AddressHandler"
        ]
      }
    },
    "/api/v1/housesbyterm/{parentGuid}/{term}": {
      "get": {
        "operationId": "AddressHandler_GetHouseByTerm",
        "responses": {
          "200": {
            "description": "A successful response.",
            "schema": {
              "$ref": "#/definitions/address_v1Houses"
            }
          },
          "default": {
            "description": "An unexpected error response.",
            "schema": {
              "$ref": "#/definitions/rpcStatus"
            }
          }
        },
        "parameters": [
          {
            "name": "parentGuid",
            "in": "path",
            "required": true,
            "type": "string"
          },
          {
            "name": "term",
            "in": "path",
            "required": true,
            "type": "string"
          },
          {
            "name": "count",
            "in": "query",
            "required": false,
            "type": "string",
            "format": "int64"
          }
        ],
        "tags": [
          "AddressHandler"
        ]
      }
    },
    "/api/v1/streetsbyterm/{parentGuid}/{term}": {
      "get": {
        "operationId": "AddressHandler_GetStreetsByTerm",
        "responses": {
          "200": {
            "description": "A successful response.",
            "schema": {
              "$ref": "#/definitions/address_v1Addresses"
            }
          },
          "default": {
            "description": "An unexpected error response.",
            "schema": {
              "$ref": "#/definitions/rpcStatus"
            }
          }
        },
        "parameters": [
          {
            "name": "parentGuid",
            "in": "path",
            "required": true,
            "type": "string"
          },
          {
            "name": "term",
            "in": "path",
            "required": true,
            "type": "string"
          },
          {
            "name": "count",
            "in": "query",
            "required": false,
            "type": "string",
            "format": "int64"
          }
        ],
        "tags": [
          "AddressHandler"
        ]
      }
    }
  },
  "definitions": {
    "address_v1AddressMessage": {
      "type": "object",
      "properties": {
        "ID": {
          "type": "string",
          "format": "int64"
        },
        "Aoguid": {
          "type": "string"
        },
        "Aolevel": {
          "type": "string"
        },
        "Parentguid": {
          "type": "string"
        },
        "Shortname": {
          "type": "string"
        },
        "Formalname": {
          "type": "string"
        },
        "Postalcode": {
          "type": "string"
        }
      }
    },
    "address_v1Addresses": {
      "type": "object",
      "properties": {
        "result": {
          "type": "array",
          "items": {
            "$ref": "#/definitions/address_v1AddressMessage"
          }
        }
      }
    },
    "address_v1HouseMessage": {
      "type": "object",
      "properties": {
        "ID": {
          "type": "string",
          "format": "int64"
        },
        "Houseguid": {
          "type": "string"
        },
        "Parentguid": {
          "type": "string"
        },
        "HouseNum": {
          "type": "string"
        },
        "BuildNum": {
          "type": "string"
        },
        "StructNum": {
          "type": "string"
        },
        "Postalcode": {
          "type": "string"
        }
      }
    },
    "address_v1Houses": {
      "type": "object",
      "properties": {
        "result": {
          "type": "array",
          "items": {
            "$ref": "#/definitions/address_v1HouseMessage"
          }
        }
      }
    },
    "protobufAny": {
      "type": "object",
      "properties": {
        "typeUrl": {
          "type": "string"
        },
        "value": {
          "type": "string",
          "format": "byte"
        }
      }
    },
    "rpcStatus": {
      "type": "object",
      "properties": {
        "code": {
          "type": "integer",
          "format": "int32"
        },
        "message": {
          "type": "string"
        },
        "details": {
          "type": "array",
          "items": {
            "$ref": "#/definitions/protobufAny"
          }
        }
      }
    }
  }
}
